SegundaPractica/Ficheros/microc_tb.vcd
$date
	Sun Nov 16 22:59:08 2025
$end
$version
	Icarus Verilog
$end
$timescale
	10ps
$end
$scope module microc_tb $end
$scope module cpu $end
$var wire 3 ! Op [2:0] $end
$var wire 1 " clk $end
$var wire 1 # reset $end
$var wire 1 $ s_inc $end
$var wire 1 % s_inm $end
$var wire 1 & we3 $end
$var wire 1 ' wez $end
$var wire 1 ( z $end
$var wire 10 ) salida_sumador [9:0] $end
$var wire 16 * salida_mem_programa [15:0] $end
$var wire 8 + salida_alu [7:0] $end
$var wire 10 , pc_actual [9:0] $end
$var wire 3 - op_alu [2:0] $end
$var wire 10 . nuevo_pc [9:0] $end
$var wire 8 / inmediato [7:0] $end
$var wire 1 0 flag_zero $end
$var wire 10 1 dir_salto [9:0] $end
$var wire 8 2 WD3 [7:0] $end
$var wire 4 3 WA3 [3:0] $end
$var wire 8 4 RD2 [7:0] $end
$var wire 8 5 RD1 [7:0] $end
$var wire 4 6 RA2 [3:0] $end
$var wire 4 7 RA1 [3:0] $end
$var wire 6 8 Opcode [5:0] $end
$scope module Alu $end
$var wire 3 9 Op [2:0] $end
$var wire 8 : B [7:0] $end
$var wire 8 ; A [7:0] $end
$var reg 8 < S [7:0] $end
$var reg 1 0 zero $end
$upscope $end
$scope module PC $end
$var wire 1 " clk $end
$var wire 1 # reset $end
$var wire 10 = D [9:0] $end
$var parameter 32 > WIDTH $end
$var reg 10 ? Q [9:0] $end
$upscope $end
$scope module banco_registros $end
$var wire 4 @ RA1 [3:0] $end
$var wire 4 A RA2 [3:0] $end
$var wire 4 B WA3 [3:0] $end
$var wire 1 " clk $end
$var wire 1 & we3 $end
$var wire 8 C WD3 [7:0] $end
$var wire 8 D RD2 [7:0] $end
$var wire 8 E RD1 [7:0] $end
$upscope $end
$scope module ffz $end
$var wire 1 ' carga $end
$var wire 1 " clk $end
$var wire 1 0 d $end
$var wire 1 # reset $end
$var reg 1 ( q $end
$upscope $end
$scope module memoria_programa $end
$var wire 10 F Address [9:0] $end
$var wire 16 G Data [15:0] $end
$var wire 1 " clk $end
$upscope $end
$scope module multiplexor_derecha $end
$var wire 8 H D0 [7:0] $end
$var wire 8 I D1 [7:0] $end
$var wire 1 % s $end
$var wire 8 J Y [7:0] $end
$var parameter 32 K WIDTH $end
$upscope $end
$scope module mux_nuevo_pc $end
$var wire 10 L D0 [9:0] $end
$var wire 1 $ s $end
$var wire 10 M Y [9:0] $end
$var wire 10 N D1 [9:0] $end
$var parameter 32 O WIDTH $end
$upscope $end
$scope module sumador $end
$var wire 10 P A [9:0] $end
$var wire 10 Q B [9:0] $end
$var wire 10 R Y [9:0] $end
$upscope $end
$upscope $end
$upscope $end
$enddefinitions $end
$comment Show the parameter values. $end
$dumpall
b1010 O
b1000 K
b1010 >
$end
#0
$dumpvars
b1 R
b1 Q
b0 P
b1 N
b101 M
b101 L
b0 J
b0 I
b0 H
b100000000000101 G
b0 F
b0 E
b0 D
b0 C
b101 B
b0 A
b0 @
b0 ?
b101 =
b0 <
b0 ;
b0 :
b0 9
b10000 8
b0 7
b0 6
b0 5
b0 4
b101 3
b0 2
b101 1
10
b0 /
b101 .
b0 -
b0 ,
b0 +
b100000000000101 *
b1 )
0(
0'
0&
0%
0$
1#
1"
b0 !
$end
#1000
0"
#1500
0#
#2000
b100 -
b100 9
b10 .
b10 =
b10 M
b100 8
b10 3
b10 B
b10 1
b10 L
b1000000000010 *
b1000000000010 G
b110 )
b110 N
b110 R
b101 ,
b101 ?
b101 F
b101 P
1"
#3000
b110 .
b110 =
b110 M
1&
1%
1$
0"
#4000
b10 /
b10 H
b1 3
b1 B
b10 6
b10 A
b100001 1
b100001 L
b111 .
b111 =
b111 M
b1000000100001 *
b1000000100001 G
b111 )
b111 N
b111 R
b110 ,
b110 ?
b110 F
b110 P
1"
#5000
0"
#6000
b100 /
b100 H
b11 3
b11 B
b100 6
b100 A
b1000011 1
b1000011 L
b1000 .
b1000 =
b1000 M
b1000001000011 *
b1000001000011 G
b1000 )
b1000 N
b1000 R
b111 ,
b111 ?
b111 F
b111 P
1"
#7000
0"
#8000
b1 /
b1 H
b100 3
b100 B
b1 6
b1 A
b10100 1
b10100 L
b1001 .
b1001 =
b1001 M
b1000000010100 *
b1000000010100 G
b1001 )
b1001 N
b1001 R
b1000 ,
b1000 ?
b1000 F
b1000 P
1"
#9000
0"
#10000
b0 -
b0 9
b101000 8
b100011 /
b100011 H
b10 3
b10 B
b11 6
b11 A
b10 7
b10 @
b1000110010 1
b1000110010 L
b1010 .
b1010 =
b1010 M
b1010001000110010 *
b1010001000110010 G
b1010 )
b1010 N
b1010 R
b1001 ,
b1001 ?
b1001 F
b1001 P
1"
#11000
b100011 2
b100011 C
b100011 J
b10 !
1'
0%
0"
#12000
b100 -
b100 9
b10100 2
b10100 C
b10100 J
10
b0 +
b0 <
b0 I
b101100 8
b10100 /
b10100 H
b1 3
b1 B
b100 6
b100 A
b1 7
b1 @
b101000001 1
b101000001 L
b1011 .
b1011 =
b1011 M
b0 5
b0 ;
b0 E
b1011000101000001 *
b1011000101000001 G
b1011 )
b1011 N
b1011 R
b1010 ,
b1010 ?
b1010 F
b1010 P
1(
1"
#13000
b11 !
0"
#14000
b10 -
b10 9
b10000000 2
b10000000 C
b10000000 J
b10010 8
b10000000 /
b10000000 H
b1001 3
b1001 B
b0 6
b0 A
b1000 7
b1000 @
b1001 1
b1001 L
b1100 .
b1100 =
b1100 M
b0 5
b0 ;
b0 E
b100100000001001 *
b100100000001001 G
b1100 )
b1100 N
b1100 R
b1011 ,
b1011 ?
b1011 F
b1011 P
1"
#15000
b1001 .
b1001 =
b1001 M
b0 !
0'
0&
0$
0"
#16000
00
b100011 +
b100011 <
b100011 I
b0 -
b0 9
b100011 2
b100011 C
b100011 J
b100011 5
b100011 ;
b100011 E
b1000110010 .
b1000110010 =
b1000110010 M
b101000 8
b100011 /
b100011 H
b10 3
b10 B
b11 6
b11 A
b10 7
b10 @
b1000110010 1
b1000110010 L
b1010001000110010 *
b1010001000110010 G
b1010 )
b1010 N
b1010 R
b1001 ,
b1001 ?
b1001 F
b1001 P
1"
#17000
b1010 .
b1010 =
b1010 M
b10 !
1'
1&
1$
0"
#18000
10
b0 +
b0 <
b0 I
b100 -
b100 9
b10100 2
b10100 C
b10100 J
b10100 5
b10100 ;
b10100 E
b101100 8
b10100 /
b10100 H
b1 3
b1 B
b100 6
b100 A
b1 7
b1 @
b101000001 1
b101000001 L
b1011 .
b1011 =
b1011 M
0(
b1011000101000001 *
b1011000101000001 G
b1011 )
b1011 N
b1011 R
b1010 ,
b1010 ?
b1010 F
b1010 P
1"
#19000
b11 !
0"
#20000
b10 -
b10 9
b10000000 2
b10000000 C
b10000000 J
b0 5
b0 ;
b0 E
b10010 8
b10000000 /
b10000000 H
b1001 3
b1001 B
b0 6
b0 A
b1000 7
b1000 @
b1001 1
b1001 L
b1100 .
b1100 =
b1100 M
b100100000001001 *
b100100000001001 G
b1100 )
b1100 N
b1100 R
b1011 ,
b1011 ?
b1011 F
b1011 P
1(
1"
#21000
b0 !
0'
0&
0"
#22000
b0 -
b0 9
b0 2
b0 C
b0 J
b10000 8
b0 /
b0 H
b1100 3
b1100 B
b0 7
b0 @
b1100 1
b1100 L
b1101 .
b1101 =
b1101 M
b100000000001100 *
b100000000001100 G
b1101 )
b1101 N
b1101 R
b1100 ,
b1100 ?
b1100 F
b1100 P
1"
#23000
b1100 .
b1100 =
b1100 M
0$
0"
