PrimeraPractica/Entregable1/alu.vcd
$date
	Mon Oct 13 19:14:42 2025
$end
$version
	Icarus Verilog
$end
$timescale
	10ps
$end
$scope module alu_tb $end
$var wire 1 ! t_z $end
$var wire 1 " t_s $end
$var wire 1 # t_c $end
$var wire 4 $ t_R [3:0] $end
$var reg 1 % error $end
$var reg 1 & error_R $end
$var reg 1 ' error_c $end
$var reg 1 ( error_s $end
$var reg 1 ) error_z $end
$var reg 4 * t_A [3:0] $end
$var reg 4 + t_B [3:0] $end
$var reg 3 , t_Op [2:0] $end
$var reg 1 - t_cin $end
$var integer 32 . errores [31:0] $end
$scope module mat $end
$var wire 4 / A [3:0] $end
$var wire 4 0 B [3:0] $end
$var wire 3 1 Op [2:0] $end
$var wire 1 - c_in $end
$var wire 1 ! zero $end
$var wire 4 2 ul_out [3:0] $end
$var wire 4 3 sum_out [3:0] $end
$var wire 1 " sign $end
$var wire 4 4 op2 [3:0] $end
$var wire 4 5 op1 [3:0] $end
$var wire 1 # carry $end
$var wire 4 6 R [3:0] $end
$scope module multiplexor $end
$var wire 1 7 s $end
$var wire 4 8 Out [3:0] $end
$var wire 4 9 B [3:0] $end
$var wire 4 : A [3:0] $end
$upscope $end
$scope module preprocessor $end
$var wire 4 ; A [3:0] $end
$var wire 4 < B [3:0] $end
$var wire 3 = Op [2:0] $end
$var wire 1 > add1 $end
$var wire 1 ? cpl $end
$var wire 1 @ op1_A $end
$var wire 1 A op2_B $end
$var wire 4 B out_mux2 [3:0] $end
$var wire 4 C out_mux1 [3:0] $end
$var wire 4 D BMod [3:0] $end
$var wire 4 E AMod [3:0] $end
$scope module complementador $end
$var wire 1 ? cpl $end
$var wire 4 F Out [3:0] $end
$var wire 4 G Inp [3:0] $end
$upscope $end
$scope module mux1 $end
$var wire 4 H A [3:0] $end
$var wire 4 I B [3:0] $end
$var wire 4 J Out [3:0] $end
$var wire 1 > s $end
$upscope $end
$scope module mux2 $end
$var wire 4 K A [3:0] $end
$var wire 4 L B [3:0] $end
$var wire 1 A s $end
$var wire 4 M Out [3:0] $end
$upscope $end
$scope module mux3 $end
$var wire 4 N A [3:0] $end
$var wire 4 O B [3:0] $end
$var wire 1 @ s $end
$var wire 4 P Out [3:0] $end
$upscope $end
$upscope $end
$scope module sumador $end
$var wire 4 Q A [3:0] $end
$var wire 4 R B [3:0] $end
$var wire 1 - c_in $end
$var wire 1 # c_out $end
$var wire 4 S S [3:0] $end
$upscope $end
$scope module unidad_logica $end
$var wire 4 T A [3:0] $end
$var wire 4 U B [3:0] $end
$var wire 2 V S [1:0] $end
$var wire 4 W Out [3:0] $end
$scope module c0 $end
$var wire 2 X S [1:0] $end
$var wire 1 Y a $end
$var wire 1 Z b $end
$var wire 1 [ sa $end
$var wire 1 \ sn $end
$var wire 1 ] so $end
$var wire 1 ^ sx $end
$var wire 1 _ out $end
$scope module mux $end
$var wire 2 ` S [1:0] $end
$var wire 1 [ a $end
$var wire 1 ] b $end
$var wire 1 ^ c $end
$var wire 1 \ d $end
$var reg 1 _ out $end
$upscope $end
$upscope $end
$scope module c1 $end
$var wire 2 a S [1:0] $end
$var wire 1 b a $end
$var wire 1 c b $end
$var wire 1 d sa $end
$var wire 1 e sn $end
$var wire 1 f so $end
$var wire 1 g sx $end
$var wire 1 h out $end
$scope module mux $end
$var wire 2 i S [1:0] $end
$var wire 1 d a $end
$var wire 1 f b $end
$var wire 1 g c $end
$var wire 1 e d $end
$var reg 1 h out $end
$upscope $end
$upscope $end
$scope module c2 $end
$var wire 2 j S [1:0] $end
$var wire 1 k a $end
$var wire 1 l b $end
$var wire 1 m sa $end
$var wire 1 n sn $end
$var wire 1 o so $end
$var wire 1 p sx $end
$var wire 1 q out $end
$scope module mux $end
$var wire 2 r S [1:0] $end
$var wire 1 m a $end
$var wire 1 o b $end
$var wire 1 p c $end
$var wire 1 n d $end
$var reg 1 q out $end
$upscope $end
$upscope $end
$scope module c3 $end
$var wire 2 s S [1:0] $end
$var wire 1 t a $end
$var wire 1 u b $end
$var wire 1 v sa $end
$var wire 1 w sn $end
$var wire 1 x so $end
$var wire 1 y sx $end
$var wire 1 z out $end
$scope module mux $end
$var wire 2 { S [1:0] $end
$var wire 1 v a $end
$var wire 1 x b $end
$var wire 1 y c $end
$var wire 1 w d $end
$var reg 1 z out $end
$upscope $end
$upscope $end
$upscope $end
$upscope $end
$scope task check $end
$var reg 5 | expected_R [4:0] $end
$var reg 1 } expected_c $end
$var reg 1 ~ expected_s $end
$var reg 1 !" expected_z $end
$upscope $end
$upscope $end
$scope module fa $end
$var wire 1 "" a $end
$var wire 1 #" b $end
$var wire 1 $" c_in $end
$var wire 1 %" sum $end
$var wire 1 &" c_out $end
$upscope $end
$enddefinitions $end
$comment Show the parameter values. $end
$dumpall
$end
#0
$dumpvars
x&"
x%"
z$"
z#"
z""
x!"
x~
x}
bx |
b0 {
0z
0y
0x
1w
0v
0u
0t
b0 s
b0 r
0q
0p
0o
1n
0m
0l
0k
b0 j
b0 i
0h
0g
0f
1e
0d
0c
0b
b0 a
b0 `
0_
0^
0]
1\
0[
0Z
0Y
b0 X
b0 W
b0 V
b0 U
b0 T
b0 S
b0 R
b0 Q
b0 P
b0 O
b1 N
b0 M
b0 L
b0 K
b1 J
b1 I
b0 H
b0 G
b0 F
b0 E
b0 D
b1 C
b0 B
1A
1@
0?
1>
b0 =
b0 <
b0 ;
b0 :
b0 9
b0 8
07
b0 6
b0 5
b0 4
b0 3
b0 2
b0 1
b0 0
b0 /
b0 .
0-
b0 ,
b0 +
b0 *
x)
x(
x'
x&
x%
b0 $
0#
0"
1!
$end
#1
0%
0)
0&
1!"
0'
0(
0~
0}
b0 |
#1000
0!
b1 $
b1 6
b1 8
1]
1^
b1 3
b1 :
b1 S
1Z
b1 4
b1 D
b1 F
b1 R
b1 U
b1 B
b1 G
b1 M
b1 +
b1 0
b1 <
b1 L
#1001
0!"
b1 |
#2000
b10 $
b10 6
b10 8
0]
0^
1f
1g
b10 3
b10 :
b10 S
0Z
1c
b10 4
b10 D
b10 F
b10 R
b10 U
b10 B
b10 G
b10 M
b10 +
b10 0
b10 <
b10 L
#2001
b10 |
#3000
b11 $
b11 6
b11 8
1]
1^
b11 3
b11 :
b11 S
1Z
b11 4
b11 D
b11 F
b11 R
b11 U
b11 B
b11 G
b11 M
b11 +
b11 0
b11 <
b11 L
#3001
b11 |
#4000
b100 $
b100 6
b100 8
0]
0^
0f
0g
1o
1p
b100 3
b100 :
b100 S
0Z
0c
1l
b100 4
b100 D
b100 F
b100 R
b100 U
b100 B
b100 G
b100 M
b100 +
b100 0
b100 <
b100 L
#4001
b100 |
#5000
b101 $
b101 6
b101 8
1]
1^
b101 3
b101 :
b101 S
1Z
b101 4
b101 D
b101 F
b101 R
b101 U
b101 B
b101 G
b101 M
b101 +
b101 0
b101 <
b101 L
#5001
b101 |
#6000
b110 $
b110 6
b110 8
0]
0^
1f
1g
b110 3
b110 :
b110 S
0Z
1c
b110 4
b110 D
b110 F
b110 R
b110 U
b110 B
b110 G
b110 M
b110 +
b110 0
b110 <
b110 L
#6001
b110 |
#7000
b111 $
b111 6
b111 8
1]
1^
b111 3
b111 :
b111 S
1Z
b111 4
b111 D
b111 F
b111 R
b111 U
b111 B
b111 G
b111 M
b111 +
b111 0
b111 <
b111 L
#7001
b111 |
#8000
1"
b1000 $
b1000 6
b1000 8
0]
0^
0f
0g
0o
0p
1x
1y
b1000 3
b1000 :
b1000 S
0Z
0c
0l
1u
b1000 4
b1000 D
b1000 F
b1000 R
b1000 U
b1000 B
b1000 G
b1000 M
b1000 +
b1000 0
b1000 <
b1000 L
#8001
1~
b1000 |
#9000
b1001 $
b1001 6
b1001 8
1]
1^
b1001 3
b1001 :
b1001 S
1Z
b1001 4
b1001 D
b1001 F
b1001 R
b1001 U
b1001 B
b1001 G
b1001 M
b1001 +
b1001 0
b1001 <
b1001 L
#9001
b1001 |
#10000
b1010 $
b1010 6
b1010 8
0]
0^
1f
1g
b1010 3
b1010 :
b1010 S
0Z
1c
b1010 4
b1010 D
b1010 F
b1010 R
b1010 U
b1010 B
b1010 G
b1010 M
b1010 +
b1010 0
b1010 <
b1010 L
#10001
b1010 |
#11000
b1011 $
b1011 6
b1011 8
1]
1^
b1011 3
b1011 :
b1011 S
1Z
b1011 4
b1011 D
b1011 F
b1011 R
b1011 U
b1011 B
b1011 G
b1011 M
b1011 +
b1011 0
b1011 <
b1011 L
#11001
b1011 |
#12000
b1100 $
b1100 6
b1100 8
0]
0^
0f
0g
1o
1p
b1100 3
b1100 :
b1100 S
0Z
0c
1l
b1100 4
b1100 D
b1100 F
b1100 R
b1100 U
b1100 B
b1100 G
b1100 M
b1100 +
b1100 0
b1100 <
b1100 L
#12001
b1100 |
#13000
b1101 $
b1101 6
b1101 8
1]
1^
b1101 3
b1101 :
b1101 S
1Z
b1101 4
b1101 D
b1101 F
b1101 R
b1101 U
b1101 B
b1101 G
b1101 M
b1101 +
b1101 0
b1101 <
b1101 L
#13001
b1101 |
#14000
b1110 $
b1110 6
b1110 8
0]
0^
1f
1g
b1110 3
b1110 :
b1110 S
0Z
1c
b1110 4
b1110 D
b1110 F
b1110 R
b1110 U
b1110 B
b1110 G
b1110 M
b1110 +
b1110 0
b1110 <
b1110 L
#14001
b1110 |
#15000
b1111 $
b1111 6
b1111 8
1]
1^
b1111 3
b1111 :
b1111 S
1Z
b1111 4
b1111 D
b1111 F
b1111 R
b1111 U
b1111 B
b1111 G
b1111 M
b1111 +
b1111 0
b1111 <
b1111 L
#15001
b1111 |
#16000
0"
0f
0g
0o
0p
0x
0y
b1 $
b1 6
b1 8
0\
0Z
0c
0l
0u
b1 3
b1 :
b1 S
1Y
b0 4
b0 D
b0 F
b0 R
b0 U
b1 5
b1 E
b1 P
b1 Q
b1 T
b0 B
b0 G
b0 M
b1 *
b1 /
b1 ;
b1 K
b1 O
b0 +
b0 0
b0 <
b0 L
#16001
0~
b1 |
#17000
b1 2
b1 9
b1 W
1_
b10 $
b10 6
b10 8
1[
0^
b10 3
b10 :
b10 S
1Z
b1 4
b1 D
b1 F
b1 R
b1 U
b1 B
b1 G
b1 M
b1 +
b1 0
b1 <
b1 L
#17001
b10 |
#18000
b0 2
b0 9
b0 W
0_
b11 $
b11 6
b11 8
0[
1^
1f
1g
b11 3
b11 :
b11 S
0Z
1c
b10 4
b10 D
b10 F
b10 R
b10 U
b10 B
b10 G
b10 M
b10 +
b10 0
b10 <
b10 L
#18001
b11 |
#19000
b1 2
b1 9
b1 W
1_
b100 $
b100 6
b100 8
1[
0^
b100 3
b100 :
b100 S
1Z
b11 4
b11 D
b11 F
b11 R
b11 U
b11 B
b11 G
b11 M
b11 +
b11 0
b11 <
b11 L
#19001
b100 |
#20000
b0 2
b0 9
b0 W
0_
b101 $
b101 6
b101 8
0[
1^
0f
0g
1o
1p
b101 3
b101 :
b101 S
0Z
0c
1l
b100 4
b100 D
b100 F
b100 R
b100 U
b100 B
b100 G
b100 M
b100 +
b100 0
b100 <
b100 L
#20001
b101 |
#21000
b1 2
b1 9
b1 W
1_
b110 $
b110 6
b110 8
1[
0^
b110 3
b110 :
b110 S
1Z
b101 4
b101 D
b101 F
b101 R
b101 U
b101 B
b101 G
b101 M
b101 +
b101 0
b101 <
b101 L
#21001
b110 |
#22000
b0 2
b0 9
b0 W
0_
b111 $
b111 6
b111 8
0[
1^
1f
1g
b111 3
b111 :
b111 S
0Z
1c
b110 4
b110 D
b110 F
b110 R
b110 U
b110 B
b110 G
b110 M
b110 +
b110 0
b110 <
b110 L
#22001
b111 |
#23000
1"
b1 2
b1 9
b1 W
1_
b1000 $
b1000 6
b1000 8
1[
0^
b1000 3
b1000 :
b1000 S
1Z
b111 4
b111 D
b111 F
b111 R
b111 U
b111 B
b111 G
b111 M
b111 +
b111 0
b111 <
b111 L
#23001
1~
b1000 |
#24000
b0 2
b0 9
b0 W
0_
b1001 $
b1001 6
b1001 8
0[
1^
0f
0g
0o
0p
1x
1y
b1001 3
b1001 :
b1001 S
0Z
0c
0l
1u
b1000 4
b1000 D
b1000 F
b1000 R
b1000 U
b1000 B
b1000 G
b1000 M
b1000 +
b1000 0
b1000 <
b1000 L
#24001
b1001 |
#25000
b1 2
b1 9
b1 W
1_
b1010 $
b1010 6
b1010 8
1[
0^
b1010 3
b1010 :
b1010 S
1Z
b1001 4
b1001 D
b1001 F
b1001 R
b1001 U
b1001 B
b1001 G
b1001 M
b1001 +
b1001 0
b1001 <
b1001 L
#25001
b1010 |
#26000
b0 2
b0 9
b0 W
0_
b1011 $
b1011 6
b1011 8
0[
1^
1f
1g
b1011 3
b1011 :
b1011 S
0Z
1c
b1010 4
b1010 D
b1010 F
b1010 R
b1010 U
b1010 B
b1010 G
b1010 M
b1010 +
b1010 0
b1010 <
b1010 L
#26001
b1011 |
#27000
b1 2
b1 9
b1 W
1_
b1100 $
b1100 6
b1100 8
1[
0^
b1100 3
b1100 :
b1100 S
1Z
b1011 4
b1011 D
b1011 F
b1011 R
b1011 U
b1011 B
b1011 G
b1011 M
b1011 +
b1011 0
b1011 <
b1011 L
#27001
b1100 |
#28000
b0 2
b0 9
b0 W
0_
b1101 $
b1101 6
b1101 8
0[
1^
0f
0g
1o
1p
b1101 3
b1101 :
b1101 S
0Z
0c
1l
b1100 4
b1100 D
b1100 F
b1100 R
b1100 U
b1100 B
b1100 G
b1100 M
b1100 +
b1100 0
b1100 <
b1100 L
#28001
b1101 |
#29000
b1 2
b1 9
b1 W
1_
b1110 $
b1110 6
b1110 8
1[
0^
b1110 3
b1110 :
b1110 S
1Z
b1101 4
b1101 D
b1101 F
b1101 R
b1101 U
b1101 B
b1101 G
b1101 M
b1101 +
b1101 0
b1101 <
b1101 L
#29001
b1110 |
#30000
b0 2
b0 9
b0 W
0_
b1111 $
b1111 6
b1111 8
0[
1^
1f
1g
b1111 3
b1111 :
b1111 S
0Z
1c
b1110 4
b1110 D
b1110 F
b1110 R
b1110 U
b1110 B
b1110 G
b1110 M
b1110 +
b1110 0
b1110 <
b1110 L
#30001
b1111 |
#31000
1!
0"
b1 2
b1 9
b1 W
1_
b0 $
b0 6
b0 8
1[
0^
b0 3
b0 :
b0 S
1#
1Z
b1111 4
b1111 D
b1111 F
b1111 R
b1111 U
b1111 B
b1111 G
b1111 M
b1111 +
b1111 0
b1111 <
b1111 L
#31001
1!"
0~
1}
b10000 |
#32000
0!
b0 2
b0 9
b0 W
0_
0o
0p
0x
0y
b10 $
b10 6
b10 8
0[
0]
1\
0e
0#
0Z
0c
0l
0u
b10 3
b10 :
b10 S
0Y
1b
b0 4
b0 D
b0 F
b0 R
b0 U
b10 5
b10 E
b10 P
b10 Q
b10 T
b0 B
b0 G
b0 M
b10 *
b10 /
b10 ;
b10 K
b10 O
b0 +
b0 0
b0 <
b0 L
#32001
0!"
0}
b10 |
#33000
b11 $
b11 6
b11 8
1]
1^
b11 3
b11 :
b11 S
1Z
b1 4
b1 D
b1 F
b1 R
b1 U
b1 B
b1 G
b1 M
b1 +
b1 0
b1 <
b1 L
#33001
b11 |
#34000
b10 2
b10 9
b10 W
1h
b100 $
b100 6
b100 8
0]
0^
1d
0g
b100 3
b100 :
b100 S
0Z
1c
b10 4
b10 D
b10 F
b10 R
b10 U
b10 B
b10 G
b10 M
b10 +
b10 0
b10 <
b10 L
#34001
b100 |
#35000
b101 $
b101 6
b101 8
1]
1^
b101 3
b101 :
b101 S
1Z
b11 4
b11 D
b11 F
b11 R
b11 U
b11 B
b11 G
b11 M
b11 +
b11 0
b11 <
b11 L
#35001
b101 |
#36000
b0 2
b0 9
b0 W
0h
b110 $
b110 6
b110 8
0]
0^
0d
1g
1o
1p
b110 3
b110 :
b110 S
0Z
0c
1l
b100 4
b100 D
b100 F
b100 R
b100 U
b100 B
b100 G
b100 M
b100 +
b100 0
b100 <
b100 L
#36001
b110 |
#37000
b111 $
b111 6
b111 8
1]
1^
b111 3
b111 :
b111 S
1Z
b101 4
b101 D
b101 F
b101 R
b101 U
b101 B
b101 G
b101 M
b101 +
b101 0
b101 <
b101 L
#37001
b111 |
#38000
1"
b10 2
b10 9
b10 W
1h
b1000 $
b1000 6
b1000 8
0]
0^
1d
0g
b1000 3
b1000 :
b1000 S
0Z
1c
b110 4
b110 D
b110 F
b110 R
b110 U
b110 B
b110 G
b110 M
b110 +
b110 0
b110 <
b110 L
#38001
1~
b1000 |
#39000
b1001 $
b1001 6
b1001 8
1]
1^
b1001 3
b1001 :
b1001 S
1Z
b111 4
b111 D
b111 F
b111 R
b111 U
b111 B
b111 G
b111 M
b111 +
b111 0
b111 <
b111 L
#39001
b1001 |
#40000
b0 2
b0 9
b0 W
0h
b1010 $
b1010 6
b1010 8
0]
0^
0d
1g
0o
0p
1x
1y
b1010 3
b1010 :
b1010 S
0Z
0c
0l
1u
b1000 4
b1000 D
b1000 F
b1000 R
b1000 U
b1000 B
b1000 G
b1000 M
b1000 +
b1000 0
b1000 <
b1000 L
#40001
b1010 |
#41000
b1011 $
b1011 6
b1011 8
1]
1^
b1011 3
b1011 :
b1011 S
1Z
b1001 4
b1001 D
b1001 F
b1001 R
b1001 U
b1001 B
b1001 G
b1001 M
b1001 +
b1001 0
b1001 <
b1001 L
#41001
b1011 |
#42000
b10 2
b10 9
b10 W
1h
b1100 $
b1100 6
b1100 8
0]
0^
1d
0g
b1100 3
b1100 :
b1100 S
0Z
1c
b1010 4
b1010 D
b1010 F
b1010 R
b1010 U
b1010 B
b1010 G
b1010 M
b1010 +
b1010 0
b1010 <
b1010 L
#42001
b1100 |
#43000
b1101 $
b1101 6
b1101 8
1]
1^
b1101 3
b1101 :
b1101 S
1Z
b1011 4
b1011 D
b1011 F
b1011 R
b1011 U
b1011 B
b1011 G
b1011 M
b1011 +
b1011 0
b1011 <
b1011 L
#43001
b1101 |
#44000
b0 2
b0 9
b0 W
0h
b1110 $
b1110 6
b1110 8
0]
0^
0d
1g
1o
1p
b1110 3
b1110 :
b1110 S
0Z
0c
1l
b1100 4
b1100 D
b1100 F
b1100 R
b1100 U
b1100 B
b1100 G
b1100 M
b1100 +
b1100 0
b1100 <
b1100 L
#44001
b1110 |
#45000
b1111 $
b1111 6
b1111 8
1]
1^
b1111 3
b1111 :
b1111 S
1Z
b1101 4
b1101 D
b1101 F
b1101 R
b1101 U
b1101 B
b1101 G
b1101 M
b1101 +
b1101 0
b1101 <
b1101 L
#45001
b1111 |
#46000
1!
0"
b10 2
b10 9
b10 W
1h
b0 $
b0 6
b0 8
0]
0^
1d
0g
b0 3
b0 :
b0 S
1#
0Z
1c
b1110 4
b1110 D
b1110 F
b1110 R
b1110 U
b1110 B
b1110 G
b1110 M
b1110 +
b1110 0
b1110 <
b1110 L
#46001
1!"
0~
1}
b10000 |
#47000
0!
b1 $
b1 6
b1 8
1]
1^
b1 3
b1 :
b1 S
1Z
b1111 4
b1111 D
b1111 F
b1111 R
b1111 U
b1111 B
b1111 G
b1111 M
b1111 +
b1111 0
b1111 <
b1111 L
#47001
0!"
b10001 |
#48000
b0 2
b0 9
b0 W
0h
0d
1g
0o
0p
0x
0y
b11 $
b11 6
b11 8
0\
0#
0Z
0c
0l
0u
b11 3
b11 :
b11 S
1Y
b0 4
b0 D
b0 F
b0 R
b0 U
b11 5
b11 E
b11 P
b11 Q
b11 T
b0 B
b0 G
b0 M
b11 *
b11 /
b11 ;
b11 K
b11 O
b0 +
b0 0
b0 <
b0 L
#48001
0}
b11 |
#49000
b1 2
b1 9
b1 W
1_
b100 $
b100 6
b100 8
1[
0^
b100 3
b100 :
b100 S
1Z
b1 4
b1 D
b1 F
b1 R
b1 U
b1 B
b1 G
b1 M
b1 +
b1 0
b1 <
b1 L
#49001
b100 |
#50000
0_
b10 2
b10 9
b10 W
1h
b101 $
b101 6
b101 8
0[
1^
1d
0g
b101 3
b101 :
b101 S
0Z
1c
b10 4
b10 D
b10 F
b10 R
b10 U
b10 B
b10 G
b10 M
b10 +
b10 0
b10 <
b10 L
#50001
b101 |
#51000
b11 2
b11 9
b11 W
1_
b110 $
b110 6
b110 8
1[
0^
b110 3
b110 :
b110 S
1Z
b11 4
b11 D
b11 F
b11 R
b11 U
b11 B
b11 G
b11 M
b11 +
b11 0
b11 <
b11 L
#51001
b110 |
#52000
0_
b0 2
b0 9
b0 W
0h
b111 $
b111 6
b111 8
0[
1^
0d
1g
1o
1p
b111 3
b111 :
b111 S
0Z
0c
1l
b100 4
b100 D
b100 F
b100 R
b100 U
b100 B
b100 G
b100 M
b100 +
b100 0
b100 <
b100 L
#52001
b111 |
#53000
1"
b1 2
b1 9
b1 W
1_
b1000 $
b1000 6
b1000 8
1[
0^
b1000 3
b1000 :
b1000 S
1Z
b101 4
b101 D
b101 F
b101 R
b101 U
b101 B
b101 G
b101 M
b101 +
b101 0
b101 <
b101 L
#53001
1~
b1000 |
#54000
0_
b10 2
b10 9
b10 W
1h
b1001 $
b1001 6
b1001 8
0[
1^
1d
0g
b1001 3
b1001 :
b1001 S
0Z
1c
b110 4
b110 D
b110 F
b110 R
b110 U
b110 B
b110 G
b110 M
b110 +
b110 0
b110 <
b110 L
#54001
b1001 |
#55000
b11 2
b11 9
b11 W
1_
b1010 $
b1010 6
b1010 8
1[
0^
b1010 3
b1010 :
b1010 S
1Z
b111 4
b111 D
b111 F
b111 R
b111 U
b111 B
b111 G
b111 M
b111 +
b111 0
b111 <
b111 L
#55001
b1010 |
#56000
0_
b0 2
b0 9
b0 W
0h
b1011 $
b1011 6
b1011 8
0[
1^
0d
1g
0o
0p
1x
1y
b1011 3
b1011 :
b1011 S
0Z
0c
0l
1u
b1000 4
b1000 D
b1000 F
b1000 R
b1000 U
b1000 B
b1000 G
b1000 M
b1000 +
b1000 0
b1000 <
b1000 L
#56001
b1011 |
#57000
b1 2
b1 9
b1 W
1_
b1100 $
b1100 6
b1100 8
1[
0^
b1100 3
b1100 :
b1100 S
1Z
b1001 4
b1001 D
b1001 F
b1001 R
b1001 U
b1001 B
b1001 G
b1001 M
b1001 +
b1001 0
b1001 <
b1001 L
#57001
b1100 |
#58000
0_
b10 2
b10 9
b10 W
1h
b1101 $
b1101 6
b1101 8
0[
1^
1d
0g
b1101 3
b1101 :
b1101 S
0Z
1c
b1010 4
b1010 D
b1010 F
b1010 R
b1010 U
b1010 B
b1010 G
b1010 M
b1010 +
b1010 0
b1010 <
b1010 L
#58001
b1101 |
#59000
b11 2
b11 9
b11 W
1_
b1110 $
b1110 6
b1110 8
1[
0^
b1110 3
b1110 :
b1110 S
1Z
b1011 4
b1011 D
b1011 F
b1011 R
b1011 U
b1011 B
b1011 G
b1011 M
b1011 +
b1011 0
b1011 <
b1011 L
#59001
b1110 |
#60000
0_
b0 2
b0 9
b0 W
0h
b1111 $
b1111 6
b1111 8
0[
1^
0d
1g
1o
1p
b1111 3
b1111 :
b1111 S
0Z
0c
1l
b1100 4
b1100 D
b1100 F
b1100 R
b1100 U
b1100 B
b1100 G
b1100 M
b1100 +
b1100 0
b1100 <
b1100 L
#60001
b1111 |
#61000
1!
0"
b1 2
b1 9
b1 W
1_
b0 $
b0 6
b0 8
1[
0^
b0 3
b0 :
b0 S
1#
1Z
b1101 4
b1101 D
b1101 F
b1101 R
b1101 U
b1101 B
b1101 G
b1101 M
b1101 +
b1101 0
b1101 <
b1101 L
#61001
1!"
0~
1}
b10000 |
#62000
0!
0_
b10 2
b10 9
b10 W
1h
b1 $
b1 6
b1 8
0[
1^
1d
0g
b1 3
b1 :
b1 S
0Z
1c
b1110 4
b1110 D
b1110 F
b1110 R
b1110 U
b1110 B
b1110 G
b1110 M
b1110 +
b1110 0
b1110 <
b1110 L
#62001
0!"
b10001 |
#63000
b11 2
b11 9
b11 W
1_
b10 $
b10 6
b10 8
1[
0^
b10 3
b10 :
b10 S
1Z
b1111 4
b1111 D
b1111 F
b1111 R
b1111 U
b1111 B
b1111 G
b1111 M
b1111 +
b1111 0
b1111 <
b1111 L
#63001
b10010 |
#64000
0_
b0 2
b0 9
b0 W
0h
0x
0y
b100 $
b100 6
b100 8
0[
0]
1\
0d
0f
1e
0n
0#
0Z
0c
0l
0u
b100 3
b100 :
b100 S
0Y
0b
1k
b0 4
b0 D
b0 F
b0 R
b0 U
b100 5
b100 E
b100 P
b100 Q
b100 T
b0 B
b0 G
b0 M
b100 *
b100 /
b100 ;
b100 K
b100 O
b0 +
b0 0
b0 <
b0 L
#64001
0}
b100 |
#65000
b101 $
b101 6
b101 8
1]
1^
b101 3
b101 :
b101 S
1Z
b1 4
b1 D
b1 F
b1 R
b1 U
b1 B
b1 G
b1 M
b1 +
b1 0
b1 <
b1 L
#65001
b101 |
#66000
b110 $
b110 6
b110 8
0]
0^
1f
1g
b110 3
b110 :
b110 S
0Z
1c
b10 4
b10 D
b10 F
b10 R
b10 U
b10 B
b10 G
b10 M
b10 +
b10 0
b10 <
b10 L
#66001
b110 |
#67000
b111 $
b111 6
b111 8
1]
1^
b111 3
b111 :
b111 S
1Z
b11 4
b11 D
b11 F
b11 R
b11 U
b11 B
b11 G
b11 M
b11 +
b11 0
b11 <
b11 L
#67001
b111 |
#68000
1"
b100 2
b100 9
b100 W
1q
b1000 $
b1000 6
b1000 8
0]
0^
0f
0g
1m
0p
b1000 3
b1000 :
b1000 S
0Z
0c
1l
b100 4
b100 D
b100 F
b100 R
b100 U
b100 B
b100 G
b100 M
b100 +
b100 0
b100 <
b100 L
#68001
1~
b1000 |
#69000
b1001 $
b1001 6
b1001 8
1]
1^
b1001 3
b1001 :
b1001 S
1Z
b101 4
b101 D
b101 F
b101 R
b101 U
b101 B
b101 G
b101 M
b101 +
b101 0
b101 <
b101 L
#69001
b1001 |
#70000
b1010 $
b1010 6
b1010 8
0]
0^
1f
1g
b1010 3
b1010 :
b1010 S
0Z
1c
b110 4
b110 D
b110 F
b110 R
b110 U
b110 B
b110 G
b110 M
b110 +
b110 0
b110 <
b110 L
#70001
b1010 |
#71000
b1011 $
b1011 6
b1011 8
1]
1^
b1011 3
b1011 :
b1011 S
1Z
b111 4
b111 D
b111 F
b111 R
b111 U
b111 B
b111 G
b111 M
b111 +
b111 0
b111 <
b111 L
#71001
b1011 |
#72000
b0 2
b0 9
b0 W
0q
b1100 $
b1100 6
b1100 8
0]
0^
0f
0g
0m
1p
1x
1y
b1100 3
b1100 :
b1100 S
0Z
0c
0l
1u
b1000 4
b1000 D
b1000 F
b1000 R
b1000 U
b1000 B
b1000 G
b1000 M
b1000 +
b1000 0
b1000 <
b1000 L
#72001
b1100 |
#73000
b1101 $
b1101 6
b1101 8
1]
1^
b1101 3
b1101 :
b1101 S
1Z
b1001 4
b1001 D
b1001 F
b1001 R
b1001 U
b1001 B
b1001 G
b1001 M
b1001 +
b1001 0
b1001 <
b1001 L
#73001
b1101 |
#74000
b1110 $
b1110 6
b1110 8
0]
0^
1f
1g
b1110 3
b1110 :
b1110 S
0Z
1c
b1010 4
b1010 D
b1010 F
b1010 R
b1010 U
b1010 B
b1010 G
b1010 M
b1010 +
b1010 0
b1010 <
b1010 L
#74001
b1110 |
#75000
b1111 $
b1111 6
b1111 8
1]
1^
b1111 3
b1111 :
b1111 S
1Z
b1011 4
b1011 D
b1011 F
b1011 R
b1011 U
b1011 B
b1011 G
b1011 M
b1011 +
b1011 0
b1011 <
b1011 L
#75001
b1111 |
#76000
1!
0"
b100 2
b100 9
b100 W
1q
b0 $
b0 6
b0 8
0]
0^
0f
0g
1m
0p
b0 3
b0 :
b0 S
1#
0Z
0c
1l
b1100 4
b1100 D
b1100 F
b1100 R
b1100 U
b1100 B
b1100 G
b1100 M
b1100 +
b1100 0
b1100 <
b1100 L
#76001
1!"
0~
1}
b10000 |
#77000
0!
b1 $
b1 6
b1 8
1]
1^
b1 3
b1 :
b1 S
1Z
b1101 4
b1101 D
b1101 F
b1101 R
b1101 U
b1101 B
b1101 G
b1101 M
b1101 +
b1101 0
b1101 <
b1101 L
#77001
0!"
b10001 |
#78000
b10 $
b10 6
b10 8
0]
0^
1f
1g
b10 3
b10 :
b10 S
0Z
1c
b1110 4
b1110 D
b1110 F
b1110 R
b1110 U
b1110 B
b1110 G
b1110 M
b1110 +
b1110 0
b1110 <
b1110 L
#78001
b10010 |
#79000
b11 $
b11 6
b11 8
1]
1^
b11 3
b11 :
b11 S
1Z
b1111 4
b1111 D
b1111 F
b1111 R
b1111 U
b1111 B
b1111 G
b1111 M
b1111 +
b1111 0
b1111 <
b1111 L
#79001
b10011 |
#80000
b0 2
b0 9
b0 W
0q
0f
0g
0m
1p
0x
0y
b101 $
b101 6
b101 8
0\
0#
0Z
0c
0l
0u
b101 3
b101 :
b101 S
1Y
b0 4
b0 D
b0 F
b0 R
b0 U
b101 5
b101 E
b101 P
b101 Q
b101 T
b0 B
b0 G
b0 M
b101 *
b101 /
b101 ;
b101 K
b101 O
b0 +
b0 0
b0 <
b0 L
#80001
0}
b101 |
#81000
b1 2
b1 9
b1 W
1_
b110 $
b110 6
b110 8
1[
0^
b110 3
b110 :
b110 S
1Z
b1 4
b1 D
b1 F
b1 R
b1 U
b1 B
b1 G
b1 M
b1 +
b1 0
b1 <
b1 L
#81001
b110 |
#82000
b0 2
b0 9
b0 W
0_
b111 $
b111 6
b111 8
0[
1^
1f
1g
b111 3
b111 :
b111 S
0Z
1c
b10 4
b10 D
b10 F
b10 R
b10 U
b10 B
b10 G
b10 M
b10 +
b10 0
b10 <
b10 L
#82001
b111 |
#83000
1"
b1 2
b1 9
b1 W
1_
b1000 $
b1000 6
b1000 8
1[
0^
b1000 3
b1000 :
b1000 S
1Z
b11 4
b11 D
b11 F
b11 R
b11 U
b11 B
b11 G
b11 M
b11 +
b11 0
b11 <
b11 L
#83001
1~
b1000 |
